{
    "message": "Thành công",
    "messageCode": 200,
    "numberOfResult": null,
    "result": {
        "data": [
            {
                "id": 31579,
                "variationId": null,
                "categoryId": 66,
                "category": {
                    "id": 66,
                    "name": "Canteen - Tòa D3",
                    "shortName": "Tòa D3",
                    "slug": "canteen-toa-d3",
                    "logo": "https://cmsbachmai-uat.tgss.vn/wp-content/uploads/2022/06/d3.png",
                    "isActive": "",
                    "restaurant": null
                },
                "provinceId": 0,
                "wooId": 31579,
                "rkCode": "4564",
                "sapCode": "70005",
                "magentoId": null,
                "name": "Lẩu Thái Đặc Biệt 3-4 Người",
                "thumbnail": "https://cmsbachmai-uat.tgss.vn/wp-content/themes/twentytwentytwo/assets/images/no-product-image.png",
                "description": "",
                "regularPrice": 400000,
                "salePrice": 350000,
                "taxClass": "",
                "taxRateValue": 0,
                "currency": null,
                "currencySymbol": null,
                "unit": "na",
                "unitText": "",
                "quantitative": "",
                "childProduct": null,
                "parentId": null,
                "group": {
                    "id": 74,
                    "name": "Ăn tiệc",
                    "slug": "an-tiec"
                },
                "tag": null,
                "minimumPrice": 0,
                "limitQuantity": 0,
                "modifier": null,
                "topping": {
                    "type": "topping",
                    "name": "Topping",
                    "data": []
                },
                "variations": null,
                "productType": null,
                "productBrand": null,
                "createdAt": "2022-06-20 16:01:35",
                "updatedAt": "2022-06-21 17:23:22"
            },
            {
                "id": 31470,
                "variationId": null,
                "categoryId": 66,
                "category": {
                    "id": 66,
                    "name": "Canteen - Tòa D3",
                    "shortName": "Tòa D3",
                    "slug": "canteen-toa-d3",
                    "logo": "https://cmsbachmai-uat.tgss.vn/wp-content/uploads/2022/06/d3.png",
                    "isActive": "",
                    "restaurant": null
                },
                "provinceId": 0,
                "wooId": 31470,
                "rkCode": "2105",
                "sapCode": "60000985",
                "magentoId": null,
                "name": "Cơm đùi gà chiên sốt tiêu",
                "thumbnail": "https://cmsbachmai-uat.tgss.vn/wp-content/uploads/2022/05/image-45_2.png",
                "description": "",
                "regularPrice": 69000,
                "salePrice": 59000,
                "taxClass": "",
                "taxRateValue": 0,
                "currency": null,
                "currencySymbol": null,
                "unit": "na",
                "unitText": "",
                "quantitative": "",
                "childProduct": null,
                "parentId": null,
                "group": {
                    "id": 70,
                    "name": "Cơm ngon",
                    "slug": "com-ngon"
                },
                "tag": null,
                "minimumPrice": 0,
                "limitQuantity": 0,
                "modifier": null,
                "topping": {
                    "type": "topping",
                    "name": "Topping",
                    "data": []
                },
                "variations": null,
                "productType": null,
                "productBrand": null,
                "createdAt": "2022-05-25 09:59:08",
                "updatedAt": "2022-06-21 17:19:42"
            },
            {
                "id": 31467,
                "variationId": null,
                "categoryId": 66,
                "category": {
                    "id": 66,
                    "name": "Canteen - Tòa D3",
                    "shortName": "Tòa D3",
                    "slug": "canteen-toa-d3",
                    "logo": "https://cmsbachmai-uat.tgss.vn/wp-content/uploads/2022/06/d3.png",
                    "isActive": "",
                    "restaurant": null
                },
                "provinceId": 0,
                "wooId": 31467,
                "rkCode": "2101",
                "sapCode": "60000982",
                "magentoId": null,
                "name": "Cơm bò sốt tiêu đen",
                "thumbnail": "https://cmsbachmai-uat.tgss.vn/wp-content/uploads/2022/05/image-45_3.png",
                "description": "",
                "regularPrice": 55000,
                "salePrice": 50000,
                "taxClass": "",
                "taxRateValue": 0,
                "currency": null,
                "currencySymbol": null,
                "unit": "na",
                "unitText": "",
                "quantitative": "",
                "childProduct": null,
                "parentId": null,
                "group": {
                    "id": 70,
                    "name": "Cơm ngon",
                    "slug": "com-ngon"
                },
                "tag": null,
                "minimumPrice": 0,
                "limitQuantity": 0,
                "modifier": null,
                "topping": {
                    "type": "topping",
                    "name": "Topping",
                    "data": []
                },
                "variations": null,
                "productType": null,
                "productBrand": null,
                "createdAt": "2022-05-25 09:58:03",
                "updatedAt": "2022-06-21 17:20:02"
            },
            {
                "id": 31454,
                "variationId": null,
                "categoryId": 66,
                "category": {
                    "id": 66,
                    "name": "Canteen - Tòa D3",
                    "shortName": "Tòa D3",
                    "slug": "canteen-toa-d3",
                    "logo": "https://cmsbachmai-uat.tgss.vn/wp-content/uploads/2022/06/d3.png",
                    "isActive": "",
                    "restaurant": null
                },
                "provinceId": 0,
                "wooId": 31454,
                "rkCode": "5311",
                "sapCode": "65000425",
                "magentoId": null,
                "name": "Mỳ Miso cay siêu cấp chất lượng nhất",
                "thumbnail": "https://cmsbachmai-uat.tgss.vn/wp-content/uploads/2022/05/image-44_6.png",
                "description": "",
                "regularPrice": 69000,
                "salePrice": 59000,
                "taxClass": "",
                "taxRateValue": 0,
                "currency": null,
                "currencySymbol": null,
                "unit": "na",
                "unitText": "",
                "quantitative": "",
                "childProduct": null,
                "parentId": null,
                "group": {
                    "id": 71,
                    "name": "Mỳ - phở",
                    "slug": "my-pho"
                },
                "tag": null,
                "minimumPrice": 0,
                "limitQuantity": 0,
                "modifier": null,
                "topping": {
                    "type": "topping",
                    "name": "Topping",
                    "data": []
                },
                "variations": null,
                "productType": {
                    "id": 53,
                    "name": "Thịt ăn nướng",
                    "slug": "thit-an-nuong"
                },
                "productBrand": null,
                "createdAt": "2022-05-25 09:35:28",
                "updatedAt": "2022-06-21 17:21:01"
            },
            {
                "id": 89,
                "variationId": null,
                "categoryId": 66,
                "category": {
                    "id": 66,
                    "name": "Canteen - Tòa D3",
                    "shortName": "Tòa D3",
                    "slug": "canteen-toa-d3",
                    "logo": "https://cmsbachmai-uat.tgss.vn/wp-content/uploads/2022/06/d3.png",
                    "isActive": "",
                    "restaurant": null
                },
                "provinceId": 0,
                "wooId": 89,
                "rkCode": "650008",
                "sapCode": "650008",
                "magentoId": null,
                "name": "'Sunset' - Sữa chua kem cheese 'Summer Shade'",
                "thumbnail": "https://cmsbachmai-uat.tgss.vn/wp-content/uploads/2022/05/image-46_2.png",
                "description": "",
                "regularPrice": 69000,
                "salePrice": 59000,
                "taxClass": "",
                "taxRateValue": 0,
                "currency": null,
                "currencySymbol": null,
                "unit": "na",
                "unitText": "",
                "quantitative": "",
                "childProduct": null,
                "parentId": null,
                "group": {
                    "id": 73,
                    "name": "Đồ uống",
                    "slug": "do-uong"
                },
                "tag": null,
                "minimumPrice": 0,
                "limitQuantity": 0,
                "modifier": null,
                "topping": {
                    "type": "topping",
                    "name": "Topping",
                    "data": []
                },
                "variations": null,
                "productType": null,
                "productBrand": null,
                "createdAt": "2022-05-19 13:32:45",
                "updatedAt": "2022-06-21 17:22:06"
            },
            {
                "id": 87,
                "variationId": null,
                "categoryId": 66,
                "category": {
                    "id": 66,
                    "name": "Canteen - Tòa D3",
                    "shortName": "Tòa D3",
                    "slug": "canteen-toa-d3",
                    "logo": "https://cmsbachmai-uat.tgss.vn/wp-content/uploads/2022/06/d3.png",
                    "isActive": "",
                    "restaurant": null
                },
                "provinceId": 0,
                "wooId": 87,
                "rkCode": "65000065",
                "sapCode": "65000065",
                "magentoId": null,
                "name": "Combo trà sữa trân châu và trà hoa quả",
                "thumbnail": "https://cmsbachmai-uat.tgss.vn/wp-content/uploads/2022/05/image-46_3.png",
                "description": "",
                "regularPrice": 90000,
                "salePrice": 65000,
                "taxClass": "",
                "taxRateValue": 0,
                "currency": null,
                "currencySymbol": null,
                "unit": "na",
                "unitText": "",
                "quantitative": "",
                "childProduct": null,
                "parentId": null,
                "group": {
                    "id": 73,
                    "name": "Đồ uống",
                    "slug": "do-uong"
                },
                "tag": null,
                "minimumPrice": 0,
                "limitQuantity": 0,
                "modifier": null,
                "topping": {
                    "type": "topping",
                    "name": "Topping",
                    "data": []
                },
                "variations": null,
                "productType": null,
                "productBrand": null,
                "createdAt": "2022-05-18 10:48:58",
                "updatedAt": "2022-06-21 17:22:45"
            },
            {
                "id": 85,
                "variationId": null,
                "categoryId": 66,
                "category": {
                    "id": 66,
                    "name": "Canteen - Tòa D3",
                    "shortName": "Tòa D3",
                    "slug": "canteen-toa-d3",
                    "logo": "https://cmsbachmai-uat.tgss.vn/wp-content/uploads/2022/06/d3.png",
                    "isActive": "",
                    "restaurant": null
                },
                "provinceId": 0,
                "wooId": 85,
                "rkCode": "65000065",
                "sapCode": "65000065",
                "magentoId": null,
                "name": "Ngập tràn bàn tiệc xứ Đài",
                "thumbnail": "https://cmsbachmai-uat.tgss.vn/wp-content/uploads/2022/05/image-47.png",
                "description": "",
                "regularPrice": 720000,
                "salePrice": 699000,
                "taxClass": "",
                "taxRateValue": 0,
                "currency": null,
                "currencySymbol": null,
                "unit": "na",
                "unitText": "",
                "quantitative": "",
                "childProduct": null,
                "parentId": null,
                "group": {
                    "id": 74,
                    "name": "Ăn tiệc",
                    "slug": "an-tiec"
                },
                "tag": null,
                "minimumPrice": 0,
                "limitQuantity": 0,
                "modifier": null,
                "topping": {
                    "type": "topping",
                    "name": "Topping",
                    "data": []
                },
                "variations": null,
                "productType": null,
                "productBrand": null,
                "createdAt": "2022-05-18 10:41:05",
                "updatedAt": "2022-06-21 17:22:49"
            },
            {
                "id": 83,
                "variationId": null,
                "categoryId": 66,
                "category": {
                    "id": 66,
                    "name": "Canteen - Tòa D3",
                    "shortName": "Tòa D3",
                    "slug": "canteen-toa-d3",
                    "logo": "https://cmsbachmai-uat.tgss.vn/wp-content/uploads/2022/06/d3.png",
                    "isActive": "",
                    "restaurant": null
                },
                "provinceId": 0,
                "wooId": 83,
                "rkCode": "65000065",
                "sapCode": "65000065",
                "magentoId": null,
                "name": "Set tiệc tràn ngập sắc màu cuối tuần",
                "thumbnail": "https://cmsbachmai-uat.tgss.vn/wp-content/uploads/2022/05/IMG.png",
                "description": "",
                "regularPrice": 850000,
                "salePrice": 799000,
                "taxClass": "",
                "taxRateValue": 0,
                "currency": null,
                "currencySymbol": null,
                "unit": "na",
                "unitText": "",
                "quantitative": "",
                "childProduct": null,
                "parentId": null,
                "group": {
                    "id": 74,
                    "name": "Ăn tiệc",
                    "slug": "an-tiec"
                },
                "tag": null,
                "minimumPrice": 0,
                "limitQuantity": 0,
                "modifier": null,
                "topping": {
                    "type": "topping",
                    "name": "Topping",
                    "data": []
                },
                "variations": null,
                "productType": null,
                "productBrand": null,
                "createdAt": "2022-05-18 10:39:38",
                "updatedAt": "2022-06-21 17:22:53"
            }
        ],
        "total": 9,
        "perPage": 8,
        "currentPage": 1,
        "lastPage": 2
    }
}